@startuml class
class Game {
  Level[] levels
}

class Level {
  Map map
  constructor() : loadLevel et set la taille etc
}

class Map {
  Background bg
  Sprites[][] board
  Rule[] rules
  TypeOfPlayableTile you
  int size_x
  int size_y
}

class Rule {
  SubjectTextTile subject
  OperatorTextTile operator
  ActionTextTile action
  Status checkStatus(Tile)
}

class SpritesParser {
  Sprites getSprite() /* Factory */
}

interface Tiles {
  boolean isActive();
  boolean isMovable();
  boolean isPlayer();
  boolean isNoum();
  boolean isOperator();
  boolean isPropertie();
}

abstract Sprites {
  int x
  int y
  String code
  Image image
}

class TextTile {
  
}

class PlayableTile {
  Status moveTile(dir)
}



Tiles <|-- Sprites
Sprites <|-- TextTile
Sprites <|-- PlayableTile

@enduml